// This is a generated file. Do not edit directly.

module mariussvechla.com/es-rollover-controller

go 1.21

require (
	docker.io/go-docker v1.0.0
	github.com/Masterminds/semver v1.5.0
	github.com/Microsoft/go-winio v0.6.1 // indirect
	github.com/cpuguy83/go-md2man/v2 v2.0.3 // indirect
	github.com/docker/distribution v2.8.3+incompatible // indirect
	github.com/docker/docker/internal/testutil v0.0.0-00010101000000-000000000000 // indirect
	github.com/docker/go-connections v0.4.0
	github.com/docker/go-units v0.5.0 // indirect
	github.com/elastic/go-elasticsearch/v7 v7.17.10
	github.com/elastic/go-elasticsearch/v8 v8.11.1
	github.com/go-openapi/jsonreference v0.20.2 // indirect
	github.com/go-openapi/swag v0.22.4 // indirect
	github.com/gogo/protobuf v1.3.2 // indirect
	github.com/golang/groupcache v0.0.0-20210331224755-41bb18bfe9da // indirect
	github.com/google/gofuzz v1.2.0 // indirect
	github.com/imdario/mergo v0.3.16 // indirect
	github.com/opencontainers/go-digest v1.0.0 // indirect
	github.com/opencontainers/image-spec v1.0.2 // indirect
	github.com/pkg/errors v0.9.1
	github.com/prometheus/client_golang v1.17.0
	github.com/sirupsen/logrus v1.9.3
	github.com/spf13/pflag v1.0.5 // indirect
	github.com/stretchr/testify v1.8.4
	github.com/urfave/cli/v2 v2.26.0
	github.com/valyala/fastjson v1.6.4
	github.com/whuang8/redactrus v1.0.2
	golang.org/x/time v0.5.0 // indirect
	google.golang.org/appengine v1.6.8 // indirect
	gopkg.in/inf.v0 v0.9.1 // indirect
	k8s.io/api v0.28.4
	k8s.io/apimachinery v0.28.4
	k8s.io/client-go v0.28.4
	k8s.io/code-generator v0.28.4
	k8s.io/gengo v0.0.0-20230829151522-9cce18d56c01 // indirect
	k8s.io/sample-controller v0.28.4
	k8s.io/utils v0.0.0-20231127182322-b307cd553661 // indirect
	sigs.k8s.io/yaml v1.4.0 // indirect
)

require github.com/jellydator/ttlcache/v2 v2.11.1

require (
	github.com/beorn7/perks v1.0.1 // indirect
	github.com/cespare/xxhash/v2 v2.2.0 // indirect
	github.com/davecgh/go-spew v1.1.1 // indirect
	github.com/distribution/reference v0.5.0 // indirect
	github.com/emicklei/go-restful/v3 v3.11.0 // indirect
	github.com/evanphx/json-patch v5.7.0+incompatible // indirect
	github.com/go-logr/logr v1.3.0 // indirect
	github.com/go-openapi/jsonpointer v0.20.0 // indirect
	github.com/golang/protobuf v1.5.3 // indirect
	github.com/google/gnostic-models v0.6.9-0.20230804172637-c7be7c783f49 // indirect
	github.com/google/go-cmp v0.6.0 // indirect
	github.com/google/uuid v1.5.0 // indirect
	github.com/josharian/intern v1.0.0 // indirect
	github.com/json-iterator/go v1.1.12 // indirect
	github.com/mailru/easyjson v0.7.7 // indirect
	github.com/matttproud/golang_protobuf_extensions/v2 v2.0.0 // indirect
	github.com/modern-go/concurrent v0.0.0-20180306012644-bacd9c7ef1dd // indirect
	github.com/modern-go/reflect2 v1.0.2 // indirect
	github.com/munnerz/goautoneg v0.0.0-20191010083416-a7dc8b61c822 // indirect
	github.com/pmezard/go-difflib v1.0.0 // indirect
	github.com/prometheus/client_model v0.5.0 // indirect
	github.com/prometheus/common v0.45.0 // indirect
	github.com/prometheus/procfs v0.12.0 // indirect
	github.com/russross/blackfriday/v2 v2.1.0 // indirect
	github.com/xrash/smetrics v0.0.0-20201216005158-039620a65673 // indirect
	golang.org/x/lint v0.0.0-20210508222113-6edffad5e616 // indirect
	golang.org/x/mod v0.14.0 // indirect
	golang.org/x/net v0.19.0 // indirect
	golang.org/x/oauth2 v0.15.0 // indirect
	golang.org/x/sync v0.5.0 // indirect
	golang.org/x/sys v0.15.0 // indirect
	golang.org/x/term v0.15.0 // indirect
	golang.org/x/text v0.14.0 // indirect
	golang.org/x/tools v0.16.1 // indirect
	google.golang.org/protobuf v1.31.0 // indirect
	gopkg.in/yaml.v2 v2.4.0 // indirect
	gopkg.in/yaml.v3 v3.0.1 // indirect
	k8s.io/klog/v2 v2.110.1 // indirect
	k8s.io/kube-openapi v0.0.0-20231206194836-bf4651e18aa8 // indirect
	sigs.k8s.io/json v0.0.0-20221116044647-bc3834ca7abd // indirect
	sigs.k8s.io/structured-merge-diff/v4 v4.4.1 // indirect
)

replace github.com/docker/docker/internal/testutil => gotest.tools/v3 v3.0.0
